sim/transcript
# vsim work.masterControl_tb -c -do "run -all; exit" 
# Start time: 18:38:12 on Apr 27,2025
# Loading work.masterControl_tb
# Loading work.masterControl
# run -all
# | with opcode =  0 | write priority CAM = 0 | at time =                  35 | [Cam start signal on] 
# | with opcode =  0 | at time =                 3035 | [Cam complete] 
# | with opcode =  0 | at time =                 3055 | [Fetching start]
# | with opcode =  0 | at time =                 3305 | [Fetching complete] 
# | with opcode =  0 | opcode convolution= 0 | priority read RAM for convolution = 1 | at time =                 3325 | [convolution start] 
# | with opcode =  0 | at time =                 3625 | [convolution complete] 
# | with opcode =  0 | at time =                 3645 | write priority CAM = 0 | [WriteBack start] 
# | with opcode =  0 | at time =                 3915 | [WriteBack complete] 
# | with opcode =  1 | opcode convolution= 0 | priority read RAM for convolution = 1 | at time =                 3945 | [convolution start] 
# | with opcode =  1 | at time =                 4245 | [convolution complete] 
# | with opcode =  1 | at time =                 4265 | write priority CAM = 0 | [WriteBack start] 
# | with opcode =  1 | at time =                 4535 | [WriteBack complete] 
# | with opcode =  2 | opcode convolution= 0 | priority read RAM for convolution = 1 | at time =                 4565 | [convolution start] 
# | with opcode =  2 | at time =                 4865 | [convolution complete] 
# | with opcode =  2 | at time =                 4885 | write priority CAM = 0 | [WriteBack start] 
# | with opcode =  2 | at time =                 5155 | [WriteBack complete] 
# | with opcode =  3 | opcode convolution= 0 | priority read RAM for convolution = 1 | at time =                 5185 | [convolution start] 
# | with opcode =  3 | at time =                 5485 | [convolution complete] 
# | with opcode =  3 | at time =                 5505 | write priority CAM = 0 | [WriteBack start] 
# | with opcode =  3 | at time =                 5775 | [WriteBack complete] 
# | with opcode =  4 | opcode convolution= 0 | priority read RAM for convolution = 1 | at time =                 5805 | [convolution start] 
# | with opcode =  4 | at time =                 6105 | [convolution complete] 
# | with opcode =  4 | at time =                 6125 | write priority CAM = 0 | [WriteBack start] 
# | with opcode =  4 | at time =                 6395 | [WriteBack complete] 
# | with opcode =  5 | opcode convolution= 0 | priority read RAM for convolution = 1 | at time =                 6425 | [convolution start] 
# | with opcode =  5 | at time =                 6725 | [convolution complete] 
# | with opcode =  5 | at time =                 6745 | write priority CAM = 0 | [WriteBack start] 
# | with opcode =  5 | at time =                 7015 | [WriteBack complete] 
# | with opcode =  6 | opcode convolution= 0 | priority read RAM for convolution = 1 | at time =                 7045 | [convolution start] 
# | with opcode =  6 | at time =                 7345 | [convolution complete] 
# | with opcode =  6 | at time =                 7365 | write priority CAM = 0 | [WriteBack start] 
# | with opcode =  6 | at time =                 7635 | [WriteBack complete] 
# | with opcode =  7 | opcode convolution= 0 | priority read RAM for convolution = 1 | at time =                 7665 | [convolution start] 
# | with opcode =  7 | at time =                 7965 | [convolution complete] 
# | with opcode =  7 | at time =                 7985 | write priority CAM = 0 | [WriteBack start] 
# | with opcode =  7 | at time =                 8255 | [WriteBack complete] 
# | with opcode =  8 | opcode convolution= 0 | priority read RAM for convolution = 1 | at time =                 8285 | [convolution start] 
# | with opcode =  8 | at time =                 8585 | [convolution complete] 
# | with opcode =  8 | at time =                 8605 | write priority CAM = 0 | [WriteBack start] 
# | with opcode =  8 | at time =                 8875 | [WriteBack complete] 
# | with opcode =  9 | opcode convolution= 0 | priority read RAM for convolution = 1 | at time =                 8905 | [convolution start] 
# | with opcode =  9 | at time =                 9205 | [convolution complete] 
# | with opcode =  9 | at time =                 9225 | write priority CAM = 0 | [WriteBack start] 
# | with opcode =  9 | at time =                 9495 | [WriteBack complete] 
# | with opcode = 10 | opcode convolution= 0 | priority read RAM for convolution = 1 | at time =                 9525 | [convolution start] 
# | with opcode = 10 | at time =                 9825 | [convolution complete] 
# | with opcode = 10 | at time =                 9845 | write priority CAM = 0 | [WriteBack start] 
# | with opcode = 10 | at time =                10115 | [WriteBack complete] 
# | with opcode = 11 | opcode convolution= 0 | priority read RAM for convolution = 1 | at time =                10145 | [convolution start] 
# | with opcode = 11 | at time =                10445 | [convolution complete] 
# | with opcode = 11 | at time =                10465 | write priority CAM = 0 | [WriteBack start] 
# | with opcode = 11 | at time =                10735 | [WriteBack complete] 
# | with opcode = 12 | opcode convolution= 0 | priority read RAM for convolution = 1 | at time =                10765 | [convolution start] 
# | with opcode = 12 | at time =                11065 | [convolution complete] 
# | with opcode = 12 | at time =                11085 | write priority CAM = 0 | [WriteBack start] 
# | with opcode = 12 | at time =                11355 | [WriteBack complete] 
# | with opcode = 13 | opcode convolution= 0 | priority read RAM for convolution = 1 | at time =                11385 | [convolution start] 
# | with opcode = 13 | at time =                11685 | [convolution complete] 
# | with opcode = 13 | at time =                11705 | write priority CAM = 0 | [WriteBack start] 
# | with opcode = 13 | at time =                11975 | [WriteBack complete] 
# | with opcode = 14 | opcode convolution= 0 | priority read RAM for convolution = 1 | at time =                12005 | [convolution start] 
# | with opcode = 14 | at time =                12305 | [convolution complete] 
# | with opcode = 14 | at time =                12325 | write priority CAM = 0 | [WriteBack start] 
# | with opcode = 14 | at time =                12595 | [WriteBack complete] 
# | with opcode = 15 | opcode convolution= 0 | priority read RAM for convolution = 1 | at time =                12625 | [convolution start] 
# | with opcode = 15 | at time =                12925 | [convolution complete] 
# | with opcode = 15 | at time =                12945 | write priority CAM = 0 | [WriteBack start] 
# | with opcode = 15 | at time =                13215 | [WriteBack complete] 
# | with opcode = 16 | at time =                13245 | [Fetching start]
# | with opcode = 16 | at time =                13495 | [Fetching complete] 
# | with opcode = 16 | opcode convolution= 1 | priority read RAM for convolution = 1 | at time =                13515 | [convolution start] 
# | with opcode = 16 | at time =                13815 | [convolution complete] 
# | with opcode = 16 | at time =                13835 | write priority CAM = 0 | [WriteBack start] 
# | with opcode = 16 | at time =                14105 | [WriteBack complete] 
# | with opcode = 17 | at time =                14135 | [Fetching start]
# | with opcode = 17 | at time =                14385 | [Fetching complete] 
# | with opcode = 17 | opcode convolution= 1 | priority read RAM for convolution = 1 | at time =                14405 | [convolution start] 
# | with opcode = 17 | at time =                14705 | [convolution complete] 
# | with opcode = 17 | at time =                14725 | write priority CAM = 0 | [WriteBack start] 
# | with opcode = 17 | at time =                14995 | [WriteBack complete] 
# | with opcode = 18 | at time =                15025 | [Fetching start]
# | with opcode = 18 | at time =                15275 | [Fetching complete] 
# | with opcode = 18 | opcode convolution= 1 | priority read RAM for convolution = 1 | at time =                15295 | [convolution start] 
# | with opcode = 18 | at time =                15595 | [convolution complete] 
# | with opcode = 18 | at time =                15615 | write priority CAM = 0 | [WriteBack start] 
# | with opcode = 18 | at time =                15885 | [WriteBack complete] 
# | with opcode = 19 | at time =                15915 | [Fetching start]
# | with opcode = 19 | at time =                16165 | [Fetching complete] 
# | with opcode = 19 | opcode convolution= 1 | priority read RAM for convolution = 1 | at time =                16185 | [convolution start] 
# | with opcode = 19 | at time =                16485 | [convolution complete] 
# | with opcode = 19 | at time =                16505 | write priority CAM = 0 | [WriteBack start] 
# | with opcode = 19 | at time =                16775 | [WriteBack complete] 
# | with opcode = 20 | at time =                16805 | [Fetching start]
# | with opcode = 20 | at time =                17055 | [Fetching complete] 
# | with opcode = 20 | opcode convolution= 1 | priority read RAM for convolution = 1 | at time =                17075 | [convolution start] 
# | with opcode = 20 | at time =                17375 | [convolution complete] 
# | with opcode = 20 | at time =                17395 | write priority CAM = 0 | [WriteBack start] 
# | with opcode = 20 | at time =                17665 | [WriteBack complete] 
# | with opcode = 21 | at time =                17695 | [Fetching start]
# | with opcode = 21 | at time =                17945 | [Fetching complete] 
# | with opcode = 21 | opcode convolution= 1 | priority read RAM for convolution = 1 | at time =                17965 | [convolution start] 
# | with opcode = 21 | at time =                18265 | [convolution complete] 
# | with opcode = 21 | at time =                18285 | write priority CAM = 0 | [WriteBack start] 
# | with opcode = 21 | at time =                18555 | [WriteBack complete] 
# | with opcode = 22 | at time =                18585 | [Fetching start]
# | with opcode = 22 | at time =                18835 | [Fetching complete] 
# | with opcode = 22 | opcode convolution= 1 | priority read RAM for convolution = 1 | at time =                18855 | [convolution start] 
# | with opcode = 22 | at time =                19155 | [convolution complete] 
# | with opcode = 22 | at time =                19175 | write priority CAM = 0 | [WriteBack start] 
# | with opcode = 22 | at time =                19445 | [WriteBack complete] 
# | with opcode = 23 | at time =                19475 | [Fetching start]
# | with opcode = 23 | at time =                19725 | [Fetching complete] 
# | with opcode = 23 | opcode convolution= 1 | priority read RAM for convolution = 1 | at time =                19745 | [convolution start] 
# | with opcode = 23 | at time =                20045 | [convolution complete] 
# | with opcode = 23 | at time =                20065 | write priority CAM = 0 | [WriteBack start] 
# | with opcode = 23 | at time =                20335 | [WriteBack complete] 
# | with opcode = 24 | at time =                20365 | [Fetching start]
# | with opcode = 24 | at time =                20615 | [Fetching complete] 
# | with opcode = 24 | opcode convolution= 1 | priority read RAM for convolution = 1 | at time =                20635 | [convolution start] 
# | with opcode = 24 | at time =                20935 | [convolution complete] 
# | with opcode = 24 | at time =                20955 | write priority CAM = 0 | [WriteBack start] 
# | with opcode = 24 | at time =                21225 | [WriteBack complete] 
# | with opcode = 25 | at time =                21255 | [Fetching start]
# | with opcode = 25 | at time =                21505 | [Fetching complete] 
# | with opcode = 25 | opcode convolution= 1 | priority read RAM for convolution = 1 | at time =                21525 | [convolution start] 
# | with opcode = 25 | at time =                21825 | [convolution complete] 
# | with opcode = 25 | at time =                21845 | write priority CAM = 0 | [WriteBack start] 
# | with opcode = 25 | at time =                22115 | [WriteBack complete] 
# | with opcode = 26 | at time =                22145 | [Fetching start]
# | with opcode = 26 | at time =                22395 | [Fetching complete] 
# | with opcode = 26 | opcode convolution= 1 | priority read RAM for convolution = 1 | at time =                22415 | [convolution start] 
# | with opcode = 26 | at time =                22715 | [convolution complete] 
# | with opcode = 26 | at time =                22735 | write priority CAM = 0 | [WriteBack start] 
# | with opcode = 26 | at time =                23005 | [WriteBack complete] 
# | with opcode = 27 | at time =                23035 | [Fetching start]
# | with opcode = 27 | at time =                23285 | [Fetching complete] 
# | with opcode = 27 | opcode convolution= 1 | priority read RAM for convolution = 1 | at time =                23305 | [convolution start] 
# | with opcode = 27 | at time =                23605 | [convolution complete] 
# | with opcode = 27 | at time =                23625 | write priority CAM = 0 | [WriteBack start] 
# | with opcode = 27 | at time =                23895 | [WriteBack complete] 
# | with opcode = 28 | at time =                23925 | [Fetching start]
# | with opcode = 28 | at time =                24175 | [Fetching complete] 
# | with opcode = 28 | opcode convolution= 1 | priority read RAM for convolution = 1 | at time =                24195 | [convolution start] 
# | with opcode = 28 | at time =                24495 | [convolution complete] 
# | with opcode = 28 | at time =                24515 | write priority CAM = 0 | [WriteBack start] 
# | with opcode = 28 | at time =                24785 | [WriteBack complete] 
# | with opcode = 29 | at time =                24815 | [Fetching start]
# | with opcode = 29 | at time =                25065 | [Fetching complete] 
# | with opcode = 29 | opcode convolution= 1 | priority read RAM for convolution = 1 | at time =                25085 | [convolution start] 
# | with opcode = 29 | at time =                25385 | [convolution complete] 
# | with opcode = 29 | at time =                25405 | write priority CAM = 0 | [WriteBack start] 
# | with opcode = 29 | at time =                25675 | [WriteBack complete] 
# | with opcode = 30 | at time =                25705 | [Fetching start]
# | with opcode = 30 | at time =                25955 | [Fetching complete] 
# | with opcode = 30 | opcode convolution= 1 | priority read RAM for convolution = 1 | at time =                25975 | [convolution start] 
# | with opcode = 30 | at time =                26275 | [convolution complete] 
# | with opcode = 30 | at time =                26295 | write priority CAM = 0 | [WriteBack start] 
# | with opcode = 30 | at time =                26565 | [WriteBack complete] 
# | with opcode = 31 | at time =                26595 | [Fetching start]
# | with opcode = 31 | at time =                26845 | [Fetching complete] 
# | with opcode = 31 | opcode convolution= 1 | priority read RAM for convolution = 1 | at time =                26865 | [convolution start] 
# | with opcode = 31 | at time =                27165 | [convolution complete] 
# | with opcode = 31 | at time =                27185 | write priority CAM = 0 | [WriteBack start] 
# | with opcode = 31 | at time =                27455 | [WriteBack complete] 
# | with opcode = 32 | at time =                27485 | [Fetching start]
# | with opcode = 32 | at time =                27735 | [Fetching complete] 
# | with opcode = 32 | opcode convolution= 0 | priority read RAM for convolution = 0 | at time =                27755 | [Average compute start] 
# | with opcode = 32 | at time =                27935 | [Average compute complete] 
# | with opcode = 33 | at time =                27965 | [Fetching start]
# | with opcode = 33 | at time =                28215 | [Fetching complete] 
# | with opcode = 33 | opcode convolution= 0 | priority read RAM for convolution = 0 | at time =                28235 | [Average compute start] 
# | with opcode = 33 | at time =                28415 | [Average compute complete] 
# | with opcode = 34 | at time =                28445 | [Fetching start]
# | with opcode = 34 | at time =                28695 | [Fetching complete] 
# | with opcode = 34 | opcode convolution= 0 | priority read RAM for convolution = 0 | at time =                28715 | [Average compute start] 
# | with opcode = 34 | at time =                28895 | [Average compute complete] 
# | with opcode = 35 | at time =                28925 | [Fetching start]
# | with opcode = 35 | at time =                29175 | [Fetching complete] 
# | with opcode = 35 | opcode convolution= 0 | priority read RAM for convolution = 0 | at time =                29195 | [Average compute start] 
# | with opcode = 35 | at time =                29375 | [Average compute complete] 
# | with opcode = 36 | at time =                29405 | [Fetching start]
# | with opcode = 36 | at time =                29655 | [Fetching complete] 
# | with opcode = 36 | opcode convolution= 0 | priority read RAM for convolution = 0 | at time =                29675 | [Average compute start] 
# | with opcode = 36 | at time =                29855 | [Average compute complete] 
# | with opcode = 37 | at time =                29885 | [Fetching start]
# | with opcode = 37 | at time =                30135 | [Fetching complete] 
# | with opcode = 37 | opcode convolution= 0 | priority read RAM for convolution = 0 | at time =                30155 | [Average compute start] 
# | with opcode = 37 | at time =                30335 | [Average compute complete] 
# | with opcode =  0 | write priority CAM = 0 | at time =               30375 | [Cam start signal on] 
# All 38 operations completed 1 frame successfully!
# ** Note: $finish    : ./masterControl_tb.v(102)
#    Time: 31345 ns  Iteration: 0  Instance: /masterControl_tb
# End time: 18:38:12 on Apr 27,2025, Elapsed time: 0:00:00
# Errors: 0, Warnings: 0
